{
    "sourceDir": "assets\/webpack",
    "entry": {
        "app":"./index.js"
    },
    "commonBundles": [
        "manifest"
    ],
    "externals": {},
    "alias": {},
    "subDirectories": {
        "sources": "src",
        "dist": "dist"
    },
    "assets": {
        "styles": "css",
        "scripts": "js"
    },
    "sri": "sha256",
    "catalog": "assets-catalog.json"
}